<?xml version="1.0" encoding="utf-8"?>
<!-- Generator: Adobe Illustrator 19.0.0, SVG Export Plug-In . SVG Version: 6.00 Build 0)  -->
<svg version="1.1" id="Layer_1" xmlns="http://www.w3.org/2000/svg" xmlns:xlink="http://www.w3.org/1999/xlink" x="0px" y="0px"
	 viewBox="0 0 330.6 331.5" style="enable-background:new 0 0 330.6 331.5;" xml:space="preserve">
<style type="text/css">
	.st0{fill:#FFFFFF;stroke:#FFFFFF;stroke-width:0.25;stroke-miterlimit:10;}
</style>
<g id="XMLID_2_">
	<path id="XMLID_16_" class="st0" d="M92.6,192.8c2.4,0,4.6,0.5,6.7,1.3c2.1,0.9,3.9,2.1,5.4,3.7c1.5,1.5,2.8,3.4,3.7,5.4
		c0.9,2.1,1.3,4.3,1.3,6.7c0,2.4-0.5,4.6-1.3,6.7c-0.9,2.1-2.1,3.9-3.7,5.4c-1.5,1.5-3.4,2.8-5.4,3.7c-2.1,0.9-4.3,1.4-6.7,1.4
		c-3.2,0-6.1-0.8-8.9-2.5c-0.4-0.3-0.7-0.6-0.8-1c-0.1-0.4,0-0.9,0.2-1.3c0.3-0.4,0.6-0.7,1-0.8c0.4-0.1,0.9-0.1,1.3,0.2
		c2.1,1.3,4.4,2,7.1,2c1.9,0,3.7-0.4,5.4-1.1c1.7-0.7,3.1-1.7,4.4-2.9c1.2-1.2,2.2-2.7,2.9-4.4c0.7-1.7,1.1-3.5,1.1-5.4
		c0-1.9-0.4-3.7-1.1-5.4c-0.7-1.7-1.7-3.1-2.9-4.4c-1.2-1.2-2.7-2.2-4.4-2.9c-1.7-0.7-3.5-1.1-5.4-1.1c-1.9,0-3.7,0.4-5.4,1.1
		c-1.7,0.7-3.1,1.7-4.4,2.9s-2.2,2.7-2.9,4.4c-0.7,1.7-1.1,3.5-1.1,5.4v15.5c0,0.4-0.2,0.8-0.5,1.1c-0.3,0.3-0.8,0.5-1.3,0.5
		c-0.4,0-0.8-0.2-1.1-0.5c-0.3-0.3-0.5-0.7-0.5-1.1v-50.6c0-0.4,0.2-0.8,0.5-1.1c0.3-0.3,0.7-0.5,1.1-0.5c0.5,0,0.9,0.2,1.3,0.5
		c0.3,0.3,0.5,0.7,0.5,1.1v24.9c1.5-2.1,3.5-3.8,5.9-5.1C87.1,193.4,89.7,192.8,92.6,192.8z"/>
	<path id="XMLID_13_" class="st0" d="M120.2,213.4c-0.5,0-0.9-0.2-1.2-0.5c-0.3-0.3-0.5-0.7-0.5-1.2v-36.8c0-0.5,0.2-0.9,0.5-1.2
		c0.3-0.3,0.7-0.5,1.2-0.5s0.9,0.2,1.2,0.5c0.3,0.3,0.5,0.7,0.5,1.2v36.8c0,0.5-0.2,0.9-0.5,1.2
		C121.1,213.2,120.7,213.4,120.2,213.4z M125.8,223.6c0.5,0,0.8,0.2,1.2,0.5c0.3,0.3,0.5,0.7,0.5,1.2c0,0.5-0.2,0.9-0.5,1.2
		c-0.3,0.3-0.7,0.5-1.2,0.5c-2,0-3.7-0.7-5.1-2.1c-1.4-1.4-2.1-3.1-2.1-5.1c0-0.5,0.2-0.8,0.5-1.2c0.3-0.3,0.7-0.5,1.2-0.5
		s0.9,0.2,1.2,0.5c0.3,0.3,0.5,0.7,0.5,1.2c0,1.1,0.4,2,1.1,2.7C123.8,223.3,124.7,223.6,125.8,223.6z"/>
	<path id="XMLID_11_" class="st0" d="M167,192.9c0.5,0,0.9,0.2,1.2,0.5c0.3,0.3,0.5,0.7,0.5,1.2v30.8c0,0.5-0.2,0.9-0.5,1.2
		c-0.3,0.3-0.7,0.5-1.2,0.5c-0.5,0-0.9-0.2-1.2-0.5c-0.3-0.3-0.5-0.7-0.5-1.2v-15.4c0-1.9-0.4-3.7-1.1-5.4c-0.7-1.7-1.7-3.1-2.9-4.4
		s-2.7-2.2-4.4-2.9c-1.7-0.7-3.5-1.1-5.4-1.1c-1.9,0-3.7,0.4-5.4,1.1c-1.7,0.7-3.1,1.7-4.4,2.9s-2.2,2.7-2.9,4.4
		c-0.7,1.7-1.1,3.5-1.1,5.4c0,1.9,0.4,3.7,1.1,5.4c0.7,1.7,1.7,3.1,2.9,4.4c1.2,1.2,2.7,2.2,4.4,2.9c1.7,0.7,3.5,1.1,5.4,1.1
		c2.5,0,4.8-0.6,7.1-1.9c0.4-0.3,0.8-0.3,1.3-0.2c0.4,0.1,0.8,0.4,1,0.8c0.3,0.4,0.3,0.8,0.2,1.3c-0.1,0.4-0.4,0.8-0.8,1
		c-2.7,1.6-5.6,2.5-8.8,2.5c-2.4,0-4.6-0.4-6.7-1.4c-2.1-0.9-3.9-2.1-5.4-3.7c-1.5-1.5-2.8-3.4-3.7-5.4c-0.9-2.1-1.3-4.3-1.3-6.7
		c0-2.4,0.4-4.6,1.3-6.7c0.9-2.1,2.1-3.9,3.7-5.4c1.5-1.5,3.4-2.8,5.4-3.7c2.1-0.9,4.3-1.3,6.7-1.3c2.8,0,5.4,0.6,7.8,1.9
		c2.4,1.3,4.4,2.9,5.9,5.1v-5.2c0-0.5,0.2-0.9,0.5-1.2C166.1,193,166.5,192.9,167,192.9z"/>
	<path id="XMLID_8_" class="st0" d="M195.1,227c-2.4,0-4.6-0.4-6.7-1.4c-2.1-0.9-3.9-2.1-5.4-3.7c-1.5-1.5-2.8-3.4-3.7-5.4
		c-0.9-2.1-1.3-4.3-1.3-6.7c0-2.6,0.6-5.1,1.7-7.5c0.3-0.4,0.6-0.7,1-0.9c0.4-0.2,0.9-0.2,1.3,0c0.4,0.3,0.7,0.6,0.8,1
		c0.2,0.4,0.1,0.9-0.1,1.3c-0.9,1.9-1.4,3.9-1.4,6c0,1.9,0.4,3.7,1.1,5.4c0.7,1.7,1.7,3.1,2.9,4.4c1.2,1.2,2.7,2.2,4.4,2.9
		c1.7,0.7,3.5,1.1,5.4,1.1c0.5,0,0.9,0.2,1.2,0.5c0.3,0.3,0.5,0.7,0.5,1.2c0,0.5-0.2,0.9-0.5,1.2C195.9,226.9,195.5,227,195.1,227z
		 M206.5,201.3c-0.5,0-0.9-0.2-1.2-0.6c-1.3-1.4-2.9-2.5-4.6-3.3c-1.7-0.8-3.6-1.2-5.6-1.2c-1.8,0-3.6,0.4-5.3,1.1
		c-0.4,0.2-0.8,0.3-1.2,0.5c-0.4,0.2-0.8,0.4-1.2,0.7c-0.4,0.3-0.8,0.3-1.3,0.3c-0.4-0.1-0.8-0.3-1-0.7c-0.3-0.4-0.3-0.8-0.3-1.3
		c0.1-0.4,0.3-0.8,0.7-1c0.5-0.3,0.9-0.6,1.4-0.8c0.5-0.3,1-0.5,1.5-0.8c2.2-0.9,4.4-1.3,6.6-1.3c2.4,0,4.7,0.5,6.9,1.5
		c2.2,1,4.1,2.4,5.7,4.2c0.4,0.4,0.5,0.8,0.5,1.2c0,0.5-0.2,0.8-0.6,1.2C207.3,201.1,206.9,201.3,206.5,201.3z"/>
	<path id="XMLID_5_" class="st0" d="M219.7,210.1v15.3c0,0.4-0.2,0.8-0.5,1.1c-0.3,0.3-0.7,0.5-1.2,0.5c-0.4,0-0.8-0.2-1.1-0.5
		c-0.3-0.3-0.5-0.7-0.5-1.1v-50.6c0-0.4,0.2-0.8,0.5-1.1c0.3-0.3,0.7-0.5,1.1-0.5c0.5,0,0.9,0.2,1.2,0.5c0.3,0.3,0.5,0.7,0.5,1.1
		v30.8l12.8-11.6c0.4-0.3,0.8-0.4,1.2-0.4c0.4,0,0.8,0.2,1.1,0.6c0.3,0.4,0.5,0.8,0.5,1.2c0,0.4-0.2,0.8-0.5,1.1L219.7,210.1z
		 M237.7,224.1c0.4,0.3,0.6,0.7,0.6,1.2c0,0.5-0.1,0.9-0.3,1.2c-0.4,0.4-0.8,0.5-1.3,0.5c-0.4,0-0.7-0.1-1.1-0.4l-11.8-10.2
		c-0.4-0.3-0.6-0.7-0.6-1.1c0-0.4,0.1-0.8,0.4-1.2c0.3-0.4,0.7-0.6,1.1-0.6c0.4,0,0.8,0.1,1.2,0.4L237.7,224.1z"/>
	<path id="XMLID_3_" class="st0" d="M250.8,220.2c0.9,0,1.7,0.3,2.4,1c0.7,0.7,1,1.5,1,2.5c0,0.9-0.3,1.7-1,2.4
		c-0.7,0.7-1.5,1-2.4,1c-1,0-1.8-0.3-2.5-1c-0.7-0.7-1-1.5-1-2.4c0-1,0.3-1.8,1-2.5C249,220.6,249.8,220.2,250.8,220.2z"/>
</g>
</svg>
