<?xml version="1.0" encoding="utf-8"?>
<!-- Generator: Adobe Illustrator 21.0.0, SVG Export Plug-In . SVG Version: 6.00 Build 0)  -->
<svg version="1.1" id="Vrstva_1" xmlns="http://www.w3.org/2000/svg" xmlns:xlink="http://www.w3.org/1999/xlink" x="0px" y="0px"
	 viewBox="0 0 592 378.7" style="enable-background:new 0 0 592 378.7;" xml:space="preserve">
<path d="M583.3,9.8c-0.2-1-0.8-1.9-1.6-2.5c-0.9-0.6-1.9-0.8-2.9-0.7c-1,0.2-1.9,0.8-2.5,1.6L360.9,315.6H231.1L15.9,8.2
	c-0.6-0.9-1.5-1.4-2.5-1.6c-1-0.2-2.1,0-2.9,0.7C9.6,7.9,9.1,8.8,8.9,9.8c-0.2,1,0,2.1,0.7,2.9l212.1,302.9h-87.2
	c-2.2,0-3.9,1.8-3.9,3.9s1.8,3.9,3.9,3.9H227l32,45.8c0.7,1.1,1.9,1.7,3.2,1.7c0.8,0,1.6-0.2,2.3-0.7c1.8-1.2,2.2-3.7,1-5.5
	l-28.9-41.2h118.8l-28.9,41.2c-1.2,1.8-0.8,4.2,1,5.5c0.7,0.5,1.4,0.7,2.3,0.7c1.3,0,2.5-0.6,3.2-1.7l32-45.8h92.7
	c2.2,0,3.9-1.8,3.9-3.9s-1.8-3.9-3.9-3.9h-87.2L582.6,12.7C583.2,11.8,583.4,10.8,583.3,9.8z"/>
</svg>
