<?xml version="1.0" encoding="UTF-8"?>
<svg width="40px" height="44px" viewBox="0 0 40 44" version="1.1" xmlns="http://www.w3.org/2000/svg" xmlns:xlink="http://www.w3.org/1999/xlink">
    <!-- Generator: Sketch 49.2 (51160) - http://www.bohemiancoding.com/sketch -->
    <title>menu</title>
    <desc>Created with Sketch.</desc>
    <defs></defs>
    <g id="Page-1" stroke="none" stroke-width="1" fill="none" fill-rule="evenodd">
        <g id="homepage-copy" transform="translate(-80.000000, -80.000000)" fill="#000000">
            <g id="menu" transform="translate(80.000000, 80.000000)">
                <g id="logo">
                    <g>
                        <path fill="#000000" d="M9.64893875,24.4608479 L7.64649336,27.5942106 C7.35018345,26.2287036 7.00456326,24.8848854 6.63742586,23.5521329 C6.20932303,22.0317061 5.72653062,20.5356239 5.27153128,19.0244924 L4.68115282,17.074274 C6.05959911,16.986191 7.43804539,16.9233379 8.81649167,16.8750914 C10.6750407,16.8064841 12.5335897,16.7808117 14.3921388,16.7666476 C14.3813802,16.7847953 14.3701733,16.8025005 14.3594147,16.8206482 L12.0203146,20.6471662 L9.64893875,24.4608479 Z M16.2977567,17.9281031 C16.5192047,17.5390332 16.742894,17.1512912 16.9656868,16.7635492 L18.9031323,16.7741723 C20.0238203,16.8011726 21.1445083,16.8140088 22.2651964,16.8582716 C24.5065724,16.9335183 26.7479485,17.0490442 28.9893246,17.2712434 C29.1184279,17.2831943 29.2609794,17.2845222 29.3945654,17.2712434 C30.5085293,17.161029 31.3212523,16.179723 31.2091834,15.0797928 C31.0975629,13.9794199 30.1032885,13.1773782 28.9893246,13.2875925 C26.7479485,13.5102343 24.5065724,13.6257602 22.2651964,13.7005643 C21.1445083,13.7448271 20.0238203,13.7576633 18.9031323,13.7851062 L18.7076843,13.7859915 C19.4182005,12.5988635 20.1444063,11.4205881 20.9010949,10.2609031 C21.7196454,9.01269251 22.5574718,7.7755476 23.4468498,6.56938665 C24.3227796,5.35658628 25.2426403,4.16547467 26.2346734,3.02703578 L26.2346734,3.02659315 L26.4072594,2.66806458 C26.5466729,2.37415967 26.6107763,2.04041825 26.5771557,1.693398 C26.4762937,0.663845565 25.5492606,-0.0903923307 24.5061242,0.00875631295 C21.5174733,0.293366035 18.5292707,0.360202844 15.5406199,0.372153797 C12.5524173,0.364186495 9.56376646,0.297792314 6.57556388,0.00875631295 L6.31870218,0.00875631295 C5.60235839,0.0100841966 4.91380766,0.402252492 4.57446332,1.07947314 C4.09660194,2.03200832 4.49153241,3.18682444 5.45622067,3.65822313 C6.42987443,4.13404809 7.35332137,4.68467717 8.25794076,5.2631918 C8.71069872,5.55178517 9.15762911,5.84834584 9.58976642,6.16748054 C10.0201106,6.48927101 10.4446273,6.8194714 10.8359715,7.19880349 C11.0148333,7.37187098 11.2335916,7.52015132 11.4779016,7.62151311 C12.5232794,8.0566163 13.7277949,7.57282404 14.1684495,6.54105847 C14.609104,5.50885027 14.1191392,4.31950917 13.0737614,3.88440597 C12.915072,3.81801179 12.7644515,3.74055191 12.6115896,3.66619043 C13.5879331,3.64538692 14.5642765,3.63166546 15.5406199,3.62945232 C17.5448584,3.63741962 19.5486486,3.67637087 21.5528871,3.78260156 C21.3484736,4.22080315 21.147198,4.66121789 20.9329224,5.09410795 C20.2838199,6.44500822 19.5876485,7.7675803 18.8753392,9.0808572 C18.0074784,10.6738749 17.0956866,12.2412202 16.16955,13.8001556 L15.5410682,13.8036966 C13.2992438,13.7926309 11.0578677,13.7665159 8.81649167,13.6837445 C6.5751156,13.6062846 4.33373953,13.4965129 2.09236346,13.2875925 C1.72522606,13.2530675 1.34508868,13.3225601 0.997227111,13.5097917 C0.0697456927,14.0095186 -0.271840021,15.1563674 0.233814421,16.0721645 L0.288055722,16.1704278 L0.288055722,16.1708705 C0.726020606,16.697155 1.1348476,17.3677362 1.49391605,18.0095467 C1.86150172,18.6606523 2.18246678,19.3369877 2.4859491,20.0208477 C3.08349996,21.3921089 3.5420855,22.8191411 3.8984643,24.2634359 C4.08853299,24.9831488 4.23691208,25.7117143 4.36242914,26.441165 C4.50004964,27.1684026 4.58298055,27.9036075 4.65156666,28.6348288 C4.77529062,30.0985991 4.77260097,31.5654679 4.55787714,32.9849755 L4.55832541,32.9849755 L4.62108394,33.4528332 C4.71477346,34.1327096 5.17380728,34.7413229 5.86953041,34.9989323 C6.87859792,35.3720676 8.00332043,34.8679145 8.38166472,33.8715591 C9.42031839,31.1365615 10.7261441,28.4475972 12.0561766,25.790502 C13.4113126,23.1418169 14.8301037,20.5219025 16.2977567,17.9281031 Z" id="Fill-1"></path>
                        <path fill="#000000" d="M39.9886471,21.2384675 C39.8747071,20.1756931 38.9362477,19.4080839 37.8931225,19.5237202 L37.7955228,19.5349689 C36.3231352,19.6987495 34.8511893,19.7761404 33.3792434,19.8314838 C31.9068558,19.8787283 30.4349099,19.9016755 28.962964,19.889077 C27.4905765,19.8814279 26.0186305,19.8589306 24.5466846,19.8013374 C23.0747387,19.7459939 21.6023512,19.6731026 20.1304052,19.5349689 C19.4935777,19.4760259 18.8496842,19.7882889 18.5078642,20.3889679 L18.3294465,20.7034807 C17.8189246,22.5154165 17.1533913,24.2535609 16.4595938,25.978207 C15.7653547,27.702853 14.9814651,29.3847542 14.1940425,31.0653054 C13.4070615,32.7454068 12.5847503,34.40931 11.7390328,36.0615146 C10.8831578,37.7096697 10.0118259,39.3501757 9.05614305,40.9501865 C8.74170396,41.4856232 8.67899279,42.1758416 8.95810165,42.7832698 C9.4045875,43.7547049 10.5391297,44.1736054 11.4926044,43.7187092 L11.9342323,43.5076841 C13.5214431,42.3792176 15.2433505,41.2714486 16.9542171,40.2392706 C18.6756828,39.2030431 20.4302706,38.2253088 22.2206303,37.3335142 C22.6693243,37.1130403 23.1149268,36.8862671 23.5724534,36.6891904 L24.9909623,36.2284449 C25.9351629,35.9265306 26.8851046,35.669611 27.8323965,35.4446376 C29.7207975,35.00144 31.634813,34.7337216 33.3788018,34.8327099 L34.0324111,34.7031253 C34.9072761,34.5294458 35.5745759,33.7514878 35.5900328,32.8065995 C35.607698,31.7213279 34.7580058,30.8268336 33.6927992,30.8088358 C33.5876918,30.807036 33.4834676,30.7989369 33.3779185,30.7962373 L33.3788018,30.7831888 C33.3434715,30.7854385 33.3094662,30.789938 33.2745776,30.7917378 C32.4747894,30.7669907 31.6798591,30.7161467 30.8884618,30.6437053 C29.9579517,30.5586653 29.0309747,30.451578 28.1070891,30.3264928 C27.183645,30.198258 26.260201,30.0695732 25.3433814,29.8994933 C24.4300948,29.7100657 23.5256408,29.4585454 22.6525424,29.0090486 C22.2789252,28.8160214 21.8448049,28.7354809 21.3992023,28.8043228 C20.2598022,28.980252 19.4763543,30.0637239 19.6490308,31.2245866 C19.8217073,32.3849994 20.885589,33.1836549 22.0245475,33.0072758 C22.9868547,32.8587934 23.9182481,32.9064877 24.8399256,33.0158248 C24.5444765,33.1386603 24.2463776,33.2587961 23.9549032,33.3888307 C23.474412,33.6052551 22.9921543,33.8117807 22.5262368,34.0556518 L21.0613569,34.6153856 C19.1155442,35.3789453 17.2108029,36.2302447 15.3369756,37.1445366 C15.0803898,37.2700717 14.827337,37.3983066 14.5729593,37.5251916 C14.5857665,37.4927954 14.5985737,37.4603992 14.6113809,37.4275531 C15.3113612,35.7056067 16.0343061,33.994909 16.7930229,32.3008593 C17.5508564,30.6063597 18.3126646,28.9145598 19.1645649,27.2646049 C19.8208241,25.9921553 20.4965148,24.7296046 21.2450742,23.5012499 C22.345611,23.4207094 23.4461478,23.3590667 24.5466846,23.3176716 C26.0186305,23.2600784 27.4905765,23.2371311 28.962964,23.229932 C30.3086043,23.2182334 31.653803,23.2393809 32.9994434,23.2785262 C32.8908029,23.3631162 32.7839289,23.449506 32.6735219,23.5318463 C32.209371,23.8787552 31.7328544,24.210816 31.2232158,24.5037313 C31.0183004,24.6225173 30.8235425,24.7831483 30.6636732,24.9788752 C29.9491192,25.8522219 30.0648257,27.1503184 30.9224672,27.8783323 C31.7792254,28.6058963 33.053322,28.4875603 33.767876,27.6146635 C34.1419348,27.1570676 34.5486742,26.739517 34.9677791,26.3368146 C35.3860007,25.9336623 35.8196794,25.5480579 36.2621906,25.175052 C37.1529541,24.4339896 38.0657991,23.719924 39.0678529,23.1151955 C39.6883401,22.73949 40.0721148,22.0173254 39.9886471,21.2384675" id="Fill-4"></path>
                    </g>
                </g>
            </g>
        </g>
    </g>
</svg>