<?xml version="1.0" encoding="utf-8"?>
<!-- Generator: Adobe Illustrator 21.0.0, SVG Export Plug-In . SVG Version: 6.00 Build 0)  -->
<svg version="1.1" id="Layer_1" xmlns="http://www.w3.org/2000/svg" xmlns:xlink="http://www.w3.org/1999/xlink" x="0px" y="0px"
	 viewBox="0 0 288.7 91.6" style="enable-background:new 0 0 288.7 91.6;" xml:space="preserve">
<g>
	<path d="M33.7,31.9c3.6,0,7,0.7,10.2,2.1c3.2,1.4,6,3.2,8.3,5.6c2.4,2.4,4.2,5.1,5.6,8.3c1.4,3.2,2.1,6.6,2.1,10.2s-0.7,7-2.1,10.2
		c-1.4,3.2-3.2,6-5.6,8.3c-2.4,2.4-5.1,4.2-8.3,5.6s-6.6,2.1-10.2,2.1c-4.9,0-9.4-1.3-13.6-3.8c-0.6-0.4-1-0.9-1.2-1.6
		s0-1.3,0.4-1.9s0.9-1,1.6-1.2c0.7-0.2,1.3-0.1,1.9,0.3c3.1,2,6.8,3.1,10.9,3.1c2.9,0,5.6-0.5,8.2-1.7c2.6-1.1,4.8-2.6,6.7-4.5
		s3.4-4.1,4.5-6.7c1.1-2.6,1.7-5.3,1.7-8.2c0-2.9-0.6-5.6-1.7-8.2c-1.1-2.6-2.6-4.8-4.5-6.7c-1.9-1.9-4.1-3.4-6.7-4.5
		c-2.6-1.1-5.3-1.7-8.2-1.7s-5.6,0.6-8.2,1.7c-2.6,1.1-4.8,2.6-6.7,4.5s-3.4,4.1-4.5,6.7s-1.7,5.3-1.7,8.2v23.7
		c0,0.6-0.3,1.2-0.8,1.7s-1.2,0.8-1.9,0.8c-0.6,0-1.2-0.3-1.7-0.8s-0.8-1.1-0.8-1.7V4.4c0-0.6,0.3-1.2,0.8-1.7s1.1-0.8,1.7-0.8
		c0.8,0,1.4,0.3,1.9,0.8s0.8,1.1,0.8,1.7v38.1c2.4-3.2,5.4-5.8,9-7.7C25.3,32.9,29.3,31.9,33.7,31.9z"/>
	<path d="M76.1,63.4c-0.7,0-1.3-0.3-1.8-0.8s-0.8-1.1-0.8-1.8V4.5c0-0.7,0.3-1.3,0.8-1.8s1.1-0.8,1.8-0.8s1.3,0.3,1.8,0.8
		s0.8,1.1,0.8,1.8v56.3c0,0.7-0.3,1.3-0.8,1.8C77.4,63.2,76.8,63.4,76.1,63.4z M84.6,79.1c0.7,0,1.3,0.3,1.8,0.8s0.7,1.1,0.7,1.8
		c0,0.7-0.2,1.3-0.7,1.8s-1.1,0.8-1.8,0.8c-3.1,0-5.7-1.1-7.9-3.2c-2.2-2.2-3.2-4.8-3.2-7.9c0-0.7,0.3-1.3,0.8-1.8s1.1-0.7,1.8-0.7
		s1.3,0.2,1.8,0.7s0.8,1.1,0.8,1.8c0,1.7,0.6,3.1,1.7,4.2C81.5,78.6,82.9,79.1,84.6,79.1z"/>
	<path d="M147.6,32c0.7,0,1.3,0.3,1.8,0.8s0.8,1.1,0.8,1.8v47.1c0,0.7-0.3,1.3-0.8,1.8s-1.1,0.8-1.8,0.8c-0.7,0-1.3-0.3-1.8-0.8
		s-0.8-1.1-0.8-1.8V58.1c0-2.9-0.6-5.6-1.7-8.2s-2.6-4.8-4.5-6.7c-1.9-1.9-4.1-3.4-6.7-4.5s-5.3-1.7-8.2-1.7c-2.9,0-5.6,0.6-8.2,1.7
		c-2.6,1.1-4.8,2.6-6.7,4.5c-1.9,1.9-3.4,4.1-4.5,6.7s-1.7,5.3-1.7,8.2c0,2.9,0.5,5.6,1.7,8.2c1.1,2.6,2.6,4.8,4.5,6.7
		c1.9,1.9,4.1,3.4,6.7,4.5s5.3,1.7,8.2,1.7c3.8,0,7.4-1,10.9-3c0.6-0.4,1.3-0.5,1.9-0.4c0.7,0.2,1.2,0.6,1.6,1.2s0.5,1.3,0.3,1.9
		c-0.2,0.7-0.6,1.2-1.2,1.6c-4.1,2.5-8.6,3.8-13.5,3.8c-3.6,0-7-0.7-10.2-2.1s-6-3.2-8.3-5.6c-2.4-2.4-4.2-5.1-5.6-8.3
		c-1.4-3.2-2.1-6.6-2.1-10.2s0.7-7,2.1-10.2c1.4-3.2,3.2-6,5.6-8.3c2.4-2.4,5.1-4.2,8.3-5.6c3.2-1.4,6.6-2.1,10.2-2.1
		c4.3,0,8.3,1,12,2.9s6.7,4.5,9,7.7v-7.9c0-0.7,0.3-1.3,0.8-1.8C146.3,32.3,146.9,32,147.6,32z"/>
	<path d="M190.6,84.3c-3.6,0-7-0.7-10.2-2.1s-6-3.2-8.3-5.6c-2.4-2.4-4.2-5.1-5.6-8.3c-1.4-3.2-2.1-6.6-2.1-10.2
		c0-3.9,0.9-7.8,2.6-11.4c0.4-0.6,0.9-1.1,1.6-1.4s1.3-0.3,1.9,0.1s1.1,0.9,1.3,1.6c0.2,0.7,0.2,1.3-0.1,1.9
		c-1.4,2.8-2.1,5.9-2.1,9.2c0,2.9,0.5,5.6,1.7,8.2c1.1,2.6,2.6,4.8,4.5,6.7c1.9,1.9,4.1,3.4,6.7,4.5s5.3,1.7,8.2,1.7
		c0.7,0,1.3,0.3,1.8,0.8s0.8,1.1,0.8,1.8c0,0.7-0.3,1.3-0.8,1.8C191.9,84.1,191.3,84.3,190.6,84.3z M208.1,44.9
		c-0.8,0-1.4-0.3-1.9-0.9c-2-2.2-4.4-3.9-7.1-5.1c-2.7-1.2-5.5-1.8-8.5-1.8c-2.8,0-5.5,0.6-8.1,1.7c-0.6,0.2-1.2,0.5-1.8,0.8
		c-0.6,0.3-1.2,0.7-1.8,1.1c-0.6,0.4-1.3,0.5-1.9,0.4c-0.7-0.1-1.2-0.5-1.6-1.1s-0.5-1.3-0.4-1.9c0.1-0.7,0.5-1.2,1.1-1.6
		c0.7-0.5,1.4-0.9,2.1-1.3c0.7-0.4,1.5-0.8,2.4-1.2c3.3-1.3,6.7-2,10.2-2c3.7,0,7.2,0.7,10.6,2.2c3.3,1.5,6.3,3.6,8.8,6.4
		c0.5,0.6,0.8,1.2,0.8,1.9c0,0.7-0.3,1.3-0.9,1.8C209.4,44.7,208.8,44.9,208.1,44.9z"/>
	<path d="M228.3,58.4v23.5c0,0.6-0.3,1.2-0.8,1.7s-1.1,0.8-1.8,0.8c-0.6,0-1.2-0.3-1.7-0.8s-0.8-1.1-0.8-1.7V4.4
		c0-0.6,0.3-1.2,0.8-1.7s1.1-0.8,1.7-0.8c0.7,0,1.3,0.3,1.8,0.8s0.8,1.1,0.8,1.7v47.1l19.6-17.7c0.5-0.5,1.2-0.7,1.8-0.6
		c0.7,0,1.2,0.3,1.7,0.9c0.5,0.6,0.7,1.2,0.7,1.8c0,0.7-0.3,1.2-0.8,1.7L228.3,58.4z M255.9,79.8c0.5,0.5,0.8,1.1,0.9,1.8
		c0,0.7-0.1,1.3-0.5,1.9c-0.6,0.6-1.2,0.8-2,0.8c-0.6,0-1.1-0.2-1.7-0.6l-18.1-15.6c-0.6-0.5-0.8-1-0.9-1.7c0-0.7,0.2-1.3,0.6-1.8
		c0.5-0.5,1-0.8,1.7-0.9c0.7,0,1.3,0.2,1.8,0.7L255.9,79.8z"/>
	<path d="M275.9,73.9c1.4,0,2.6,0.5,3.7,1.5c1,1,1.5,2.3,1.5,3.8c0,1.4-0.5,2.7-1.5,3.7c-1,1.1-2.2,1.6-3.7,1.6s-2.8-0.5-3.8-1.6
		s-1.5-2.3-1.5-3.7c0-1.5,0.5-2.8,1.5-3.8C273.2,74.5,274.5,73.9,275.9,73.9z"/>
</g>
</svg>
